\relax 
\@writefile{toc}{\contentsline {section}{Problem 1}{2}}
\newlabel{mpi}{{1}{2}}
\@writefile{lol}{\contentsline {lstlisting}{\numberline {1}Program "mpi" source code}{2}}
\newlabel{output1}{{2}{3}}
\@writefile{lol}{\contentsline {lstlisting}{\numberline {2}Output running program "mpi"}{3}}
\newlabel{output2}{{3}{3}}
\@writefile{lol}{\contentsline {lstlisting}{\numberline {3}Output running program "mpi" with ibrun}{3}}
\newlabel{output3}{{4}{3}}
\@writefile{lol}{\contentsline {lstlisting}{\numberline {4}Output with modified idev session of program "mpi"}{3}}
\newlabel{output4}{{5}{4}}
\@writefile{lol}{\contentsline {lstlisting}{\numberline {5}Output with idev session using 2 nodes and 2 tasks of program "mpi"}{4}}
\newlabel{LastPage}{{}{4}}
